DS1 - VL8 - Quizze zur Datentransformation
…
Quiz 3

Erstellen Sie einen ‘tibble’ basierend auf dem iris Datensatz, welcher nur die Spalte ‘Species’ enthält und eine neue (absteigend sortierte) Spalte mit dem Quotienten aus der Kelchblattlänge zu -breite. Der ‘tibble’ soll aber nur die Arten I. versicolor und I. virginica und Quotientenwerte größer 2 enthalten:

Drag-N-Drop Quiz
Lösung

iris |>
  mutate(sepal_lw = Sepal.Length/Sepal.Width) |>
  filter(Species %in% c('versicolor', 'virginica'), sepal_lw > 2) |>
  select(Species, sepal_lw) |>
  arrange(desc(sepal_lw)) |>
  as_tibble()

# A tibble: 79 × 2
   Species    sepal_lw
   <fct>         <dbl>
 1 virginica      2.96
 2 versicolor     2.82
 3 virginica      2.75
 4 versicolor     2.74
 5 versicolor     2.73
 6 virginica      2.73
 7 virginica      2.68
 8 virginica      2.64
 9 virginica      2.57
10 virginica      2.53
# … with 69 more rows
…
